NAME	GS<br> follow link to MSigDB	GS DETAILS	SIZE	ES	NES	NOM p-val	FDR q-val	FWER p-val	RANK AT MAX	LEADING EDGE	
REACTOME_RESPIRATORY_ELECTRON_TRANSPORT	REACTOME_RESPIRATORY_ELECTRON_TRANSPORT	Details ...	70	0.7058686	2.8953514	0.0	0.0	0.0	819	tags=74%, list=22%, signal=93%	
REACTOME_RESPIRATORY_ELECTRON_TRANSPORT_ATP_SYNTHESIS_BY_CHEMIOSMOTIC_COUPLING_AND_HEAT_PRODUCTION_BY_UNCOUPLING_PROTEINS_	REACTOME_RESPIRATORY_ELECTRON_TRANSPORT_ATP_SYNTHESIS_BY_CHEMIOSMOTIC_COUPLING_AND_HEAT_PRODUCTION_BY_UNCOUPLING_PROTEINS_	Details ...	85	0.6826375	2.8868523	0.0	0.0	0.0	819	tags=69%, list=22%, signal=87%	
REACTOME_THE_CITRIC_ACID_TCA_CYCLE_AND_RESPIRATORY_ELECTRON_TRANSPORT	REACTOME_THE_CITRIC_ACID_TCA_CYCLE_AND_RESPIRATORY_ELECTRON_TRANSPORT	Details ...	123	0.6288983	2.8129988	0.0	0.0	0.0	819	tags=63%, list=22%, signal=77%	
REACTOME_COMPLEX_I_BIOGENESIS	REACTOME_COMPLEX_I_BIOGENESIS	Details ...	40	0.7186619	2.5613973	0.0	0.0	0.0	819	tags=80%, list=22%, signal=101%	
REACTOME_MITOCHONDRIAL_TRANSLATION	REACTOME_MITOCHONDRIAL_TRANSLATION	Details ...	20	0.7132354	2.1836445	0.0	4.2149096E-4	0.004	790	tags=75%, list=21%, signal=94%	
REACTOME_CRISTAE_FORMATION	REACTOME_CRISTAE_FORMATION	Details ...	26	0.6510043	2.1372843	0.0	7.105278E-4	0.008	966	tags=73%, list=26%, signal=98%	
REACTOME_MITOCHONDRIAL_PROTEIN_IMPORT	REACTOME_MITOCHONDRIAL_PROTEIN_IMPORT	Details ...	36	0.59123003	2.0841448	0.0	0.0016607908	0.022	1374	tags=92%, list=37%, signal=143%	
REACTOME_GABA_RECEPTOR_ACTIVATION	REACTOME_GABA_RECEPTOR_ACTIVATION	Details ...	36	0.5836889	2.069421	0.0	0.0017136161	0.026	1042	tags=67%, list=28%, signal=91%	
REACTOME_NEURONAL_SYSTEM	REACTOME_NEURONAL_SYSTEM	Details ...	247	0.40976855	2.0142627	0.0	0.0027949864	0.047	1047	tags=42%, list=28%, signal=55%	
REACTOME_PROTEIN_PROTEIN_INTERACTIONS_AT_SYNAPSES	REACTOME_PROTEIN_PROTEIN_INTERACTIONS_AT_SYNAPSES	Details ...	76	0.4592495	1.9124932	0.0	0.008728759	0.149	469	tags=29%, list=12%, signal=32%	
REACTOME_NEUROTRANSMITTER_RELEASE_CYCLE	REACTOME_NEUROTRANSMITTER_RELEASE_CYCLE	Details ...	37	0.53834116	1.9071784	0.0	0.008130322	0.153	1241	tags=59%, list=33%, signal=88%	
REACTOME_GLUTAMATE_NEUROTRANSMITTER_RELEASE_CYCLE	REACTOME_GLUTAMATE_NEUROTRANSMITTER_RELEASE_CYCLE	Details ...	19	0.6376354	1.9059681	0.0	0.0075871	0.156	1241	tags=79%, list=33%, signal=117%	
REACTOME_MITOCHONDRIAL_BIOGENESIS	REACTOME_MITOCHONDRIAL_BIOGENESIS	Details ...	43	0.50683546	1.8924913	0.0	0.008195174	0.181	1228	tags=67%, list=33%, signal=99%	
REACTOME_GABA_SYNTHESIS_RELEASE_REUPTAKE_AND_DEGRADATION	REACTOME_GABA_SYNTHESIS_RELEASE_REUPTAKE_AND_DEGRADATION	Details ...	17	0.64411783	1.8915646	0.0018115942	0.007645016	0.182	1219	tags=82%, list=32%, signal=121%	
REACTOME_GABA_B_RECEPTOR_ACTIVATION	REACTOME_GABA_B_RECEPTOR_ACTIVATION	Details ...	25	0.57460886	1.8794311	0.0019417476	0.008229999	0.207	1011	tags=64%, list=27%, signal=87%	
REACTOME_PYRUVATE_METABOLISM_AND_CITRIC_ACID_TCA_CYCLE	REACTOME_PYRUVATE_METABOLISM_AND_CITRIC_ACID_TCA_CYCLE	Details ...	41	0.5050843	1.8438015	0.0033057851	0.011769567	0.297	762	tags=49%, list=20%, signal=61%	
REACTOME_NEUREXINS_AND_NEUROLIGINS	REACTOME_NEUREXINS_AND_NEUROLIGINS	Details ...	49	0.4863102	1.8181102	0.0	0.015227683	0.385	388	tags=31%, list=10%, signal=34%	
REACTOME_MITOCHONDRIAL_CALCIUM_ION_TRANSPORT	REACTOME_MITOCHONDRIAL_CALCIUM_ION_TRANSPORT	Details ...	15	0.63525647	1.8121066	0.001908397	0.01538711	0.409	1309	tags=93%, list=35%, signal=143%	
REACTOME_CELL_CELL_JUNCTION_ORGANIZATION	REACTOME_CELL_CELL_JUNCTION_ORGANIZATION	Details ...	21	0.5983085	1.8102809	0.0034904014	0.01488069	0.415	753	tags=57%, list=20%, signal=71%	
REACTOME_SLC_MEDIATED_TRANSMEMBRANE_TRANSPORT	REACTOME_SLC_MEDIATED_TRANSMEMBRANE_TRANSPORT	Details ...	65	0.45121032	1.7865589	0.0	0.017470216	0.476	304	tags=26%, list=8%, signal=28%	
REACTOME_TRANSMISSION_ACROSS_CHEMICAL_SYNAPSES	REACTOME_TRANSMISSION_ACROSS_CHEMICAL_SYNAPSES		171	0.3781842	1.7620384	0.0	0.021261659	0.567	786	tags=33%, list=21%, signal=40%	
REACTOME_UNBLOCKING_OF_NMDA_RECEPTORS_GLUTAMATE_BINDING_AND_ACTIVATION	REACTOME_UNBLOCKING_OF_NMDA_RECEPTORS_GLUTAMATE_BINDING_AND_ACTIVATION		19	0.5719327	1.7612147	0.007005254	0.020457998	0.57	739	tags=47%, list=20%, signal=59%	
REACTOME_ADHERENS_JUNCTIONS_INTERACTIONS	REACTOME_ADHERENS_JUNCTIONS_INTERACTIONS		18	0.5865814	1.7544615	0.0034602077	0.021302732	0.602	753	tags=56%, list=20%, signal=69%	
REACTOME_SEROTONIN_NEUROTRANSMITTER_RELEASE_CYCLE	REACTOME_SEROTONIN_NEUROTRANSMITTER_RELEASE_CYCLE		15	0.62220114	1.7496346	0.0018248175	0.021242823	0.617	1241	tags=87%, list=33%, signal=129%	
REACTOME_CARDIAC_CONDUCTION	REACTOME_CARDIAC_CONDUCTION		55	0.4498325	1.7303345	0.0016920473	0.02415125	0.671	830	tags=38%, list=22%, signal=48%	
REACTOME_G_ALPHA_Z_SIGNALLING_EVENTS	REACTOME_G_ALPHA_Z_SIGNALLING_EVENTS		32	0.49636853	1.7222371	0.0	0.024970274	0.704	893	tags=50%, list=24%, signal=65%	
REACTOME_TRANSCRIPTIONAL_REGULATION_BY_MECP2	REACTOME_TRANSCRIPTIONAL_REGULATION_BY_MECP2		21	0.5484773	1.7067627	0.008650519	0.027991677	0.762	478	tags=48%, list=13%, signal=54%	
REACTOME_DOPAMINE_NEUROTRANSMITTER_RELEASE_CYCLE	REACTOME_DOPAMINE_NEUROTRANSMITTER_RELEASE_CYCLE		20	0.54640424	1.6941453	0.0034965035	0.03008462	0.795	1241	tags=65%, list=33%, signal=96%	
REACTOME_NEGATIVE_REGULATION_OF_NMDA_RECEPTOR_MEDIATED_NEURONAL_TRANSMISSION	REACTOME_NEGATIVE_REGULATION_OF_NMDA_RECEPTOR_MEDIATED_NEURONAL_TRANSMISSION		18	0.5712579	1.693585	0.012891345	0.029245667	0.8	739	tags=50%, list=20%, signal=62%	
REACTOME_TRANSPORT_OF_INORGANIC_CATIONS_ANIONS_AND_AMINO_ACIDS_OLIGOPEPTIDES	REACTOME_TRANSPORT_OF_INORGANIC_CATIONS_ANIONS_AND_AMINO_ACIDS_OLIGOPEPTIDES		37	0.4700914	1.6875386	0.0052083335	0.029747665	0.815	263	tags=27%, list=7%, signal=29%	
REACTOME_SYNAPTIC_ADHESION_LIKE_MOLECULES	REACTOME_SYNAPTIC_ADHESION_LIKE_MOLECULES		20	0.54995096	1.6758231	0.0068259384	0.031852245	0.846	1305	tags=70%, list=35%, signal=107%	
REACTOME_SIGNALING_BY_RETINOIC_ACID	REACTOME_SIGNALING_BY_RETINOIC_ACID		15	0.6004005	1.671672	0.008695652	0.032442763	0.864	808	tags=60%, list=21%, signal=76%	
REACTOME_POTASSIUM_CHANNELS	REACTOME_POTASSIUM_CHANNELS		36	0.46895832	1.645016	0.0034904014	0.040435724	0.927	1011	tags=47%, list=27%, signal=64%	
REACTOME_NEUROTRANSMITTER_RECEPTORS_AND_POSTSYNAPTIC_SIGNAL_TRANSMISSION	REACTOME_NEUROTRANSMITTER_RECEPTORS_AND_POSTSYNAPTIC_SIGNAL_TRANSMISSION		127	0.3658135	1.6441478	0.0	0.03952254	0.928	741	tags=31%, list=20%, signal=38%	
REACTOME_PROTEIN_LOCALIZATION	REACTOME_PROTEIN_LOCALIZATION		84	0.38598326	1.6239021	0.006655574	0.04582606	0.954	963	tags=45%, list=26%, signal=59%	
REACTOME_PHASE_0_RAPID_DEPOLARISATION	REACTOME_PHASE_0_RAPID_DEPOLARISATION		24	0.49449226	1.622197	0.0053380784	0.045203794	0.954	1260	tags=58%, list=34%, signal=87%	
REACTOME_ROS_AND_RNS_PRODUCTION_IN_PHAGOCYTES	REACTOME_ROS_AND_RNS_PRODUCTION_IN_PHAGOCYTES		15	0.56135017	1.6103578	0.021543985	0.04857448	0.964	1456	tags=80%, list=39%, signal=130%	
REACTOME_RECEPTOR_TYPE_TYROSINE_PROTEIN_PHOSPHATASES	REACTOME_RECEPTOR_TYPE_TYROSINE_PROTEIN_PHOSPHATASES		16	0.5493638	1.6091313	0.029684601	0.047658157	0.965	1296	tags=69%, list=34%, signal=104%	
REACTOME_PYRUVATE_METABOLISM	REACTOME_PYRUVATE_METABOLISM		20	0.50788736	1.5778546	0.023972603	0.0601532	0.988	762	tags=50%, list=20%, signal=62%	
REACTOME_ADRENALINE_NORADRENALINE_INHIBITS_INSULIN_SECRETION	REACTOME_ADRENALINE_NORADRENALINE_INHIBITS_INSULIN_SECRETION		20	0.51202285	1.5695916	0.024054984	0.06303329	0.992	1260	tags=65%, list=34%, signal=97%	
REACTOME_CITRIC_ACID_CYCLE_TCA_CYCLE_	REACTOME_CITRIC_ACID_CYCLE_TCA_CYCLE_		21	0.5041428	1.5638967	0.025225226	0.06442453	0.994	620	tags=43%, list=16%, signal=51%	
REACTOME_TRANSFERRIN_ENDOCYTOSIS_AND_RECYCLING	REACTOME_TRANSFERRIN_ENDOCYTOSIS_AND_RECYCLING		15	0.54352796	1.5572089	0.033210333	0.066293515	0.995	1557	tags=80%, list=41%, signal=136%	
REACTOME_LONG_TERM_POTENTIATION	REACTOME_LONG_TERM_POTENTIATION		20	0.5016854	1.5566324	0.036363635	0.06511841	0.995	1256	tags=55%, list=33%, signal=82%	
REACTOME_BRANCHED_CHAIN_AMINO_ACID_CATABOLISM	REACTOME_BRANCHED_CHAIN_AMINO_ACID_CATABOLISM		18	0.48274317	1.4610311	0.067028984	0.13044687	1.0	1203	tags=56%, list=32%, signal=81%	
REACTOME_ION_HOMEOSTASIS	REACTOME_ION_HOMEOSTASIS		30	0.43493336	1.456652	0.046428572	0.13135234	1.0	1026	tags=50%, list=27%, signal=68%	
REACTOME_CA2_PATHWAY	REACTOME_CA2_PATHWAY		25	0.45145032	1.4559805	0.054054055	0.12909359	1.0	1214	tags=52%, list=32%, signal=76%	
REACTOME_RAS_ACTIVATION_UPON_CA2_INFLUX_THROUGH_NMDA_RECEPTOR	REACTOME_RAS_ACTIVATION_UPON_CA2_INFLUX_THROUGH_NMDA_RECEPTOR		18	0.49293506	1.4525878	0.07427536	0.12926744	1.0	1256	tags=56%, list=33%, signal=83%	
REACTOME_MUSCLE_CONTRACTION	REACTOME_MUSCLE_CONTRACTION		81	0.34636727	1.4444416	0.011235955	0.13360444	1.0	830	tags=30%, list=22%, signal=37%	
REACTOME_EFFECTS_OF_PIP2_HYDROLYSIS	REACTOME_EFFECTS_OF_PIP2_HYDROLYSIS		17	0.48642316	1.424996	0.07913669	0.14902627	1.0	708	tags=53%, list=19%, signal=65%	
REACTOME_INWARDLY_RECTIFYING_K_CHANNELS	REACTOME_INWARDLY_RECTIFYING_K_CHANNELS		15	0.5020934	1.4202302	0.08052435	0.15055001	1.0	1183	tags=60%, list=31%, signal=87%	
REACTOME_TRAFFICKING_OF_GLUR2_CONTAINING_AMPA_RECEPTORS	REACTOME_TRAFFICKING_OF_GLUR2_CONTAINING_AMPA_RECEPTORS		17	0.4767767	1.3956753	0.07706422	0.17233343	1.0	472	tags=29%, list=13%, signal=33%	
REACTOME_MITOCHONDRIAL_FATTY_ACID_BETA_OXIDATION	REACTOME_MITOCHONDRIAL_FATTY_ACID_BETA_OXIDATION		26	0.4206117	1.3846507	0.09043478	0.18090421	1.0	872	tags=42%, list=23%, signal=55%	
REACTOME_ACTIVATION_OF_KAINATE_RECEPTORS_UPON_GLUTAMATE_BINDING	REACTOME_ACTIVATION_OF_KAINATE_RECEPTORS_UPON_GLUTAMATE_BINDING		19	0.46369162	1.3729762	0.09490334	0.19096953	1.0	1256	tags=53%, list=33%, signal=79%	
REACTOME_POST_TRANSLATIONAL_MODIFICATION_SYNTHESIS_OF_GPI_ANCHORED_PROTEINS	REACTOME_POST_TRANSLATIONAL_MODIFICATION_SYNTHESIS_OF_GPI_ANCHORED_PROTEINS		21	0.4421504	1.3579589	0.10622711	0.2058435	1.0	614	tags=38%, list=16%, signal=45%	
REACTOME_AQUAPORIN_MEDIATED_TRANSPORT	REACTOME_AQUAPORIN_MEDIATED_TRANSPORT		29	0.39205804	1.3572637	0.10157618	0.20280994	1.0	786	tags=38%, list=21%, signal=48%	
REACTOME_TRAFFICKING_OF_AMPA_RECEPTORS	REACTOME_TRAFFICKING_OF_AMPA_RECEPTORS		29	0.4039759	1.3491935	0.103270225	0.20897299	1.0	1026	tags=45%, list=27%, signal=61%	
REACTOME_OPIOID_SIGNALLING	REACTOME_OPIOID_SIGNALLING		67	0.33380803	1.3472536	0.067911714	0.20761682	1.0	1262	tags=49%, list=34%, signal=73%	
REACTOME_AMINO_ACIDS_REGULATE_MTORC1	REACTOME_AMINO_ACIDS_REGULATE_MTORC1		22	0.41607556	1.3406818	0.11849192	0.21214876	1.0	1514	tags=68%, list=40%, signal=113%	
REACTOME_VASOPRESSIN_REGULATES_RENAL_WATER_HOMEOSTASIS_VIA_AQUAPORINS	REACTOME_VASOPRESSIN_REGULATES_RENAL_WATER_HOMEOSTASIS_VIA_AQUAPORINS		29	0.39205804	1.3370408	0.10499139	0.21316965	1.0	786	tags=38%, list=21%, signal=48%	
REACTOME_ADP_SIGNALLING_THROUGH_P2Y_PURINOCEPTOR_12	REACTOME_ADP_SIGNALLING_THROUGH_P2Y_PURINOCEPTOR_12		15	0.46795973	1.3350431	0.1349353	0.2120175	1.0	1183	tags=53%, list=31%, signal=77%	
REACTOME_G_PROTEIN_ACTIVATION	REACTOME_G_PROTEIN_ACTIVATION		17	0.4561506	1.3337657	0.11333334	0.20995268	1.0	1214	tags=59%, list=32%, signal=86%	
REACTOME_GLYCEROPHOSPHOLIPID_BIOSYNTHESIS	REACTOME_GLYCEROPHOSPHOLIPID_BIOSYNTHESIS		39	0.37116858	1.318347	0.09778598	0.22640513	1.0	589	tags=26%, list=16%, signal=30%	
REACTOME_DAG_AND_IP3_SIGNALING	REACTOME_DAG_AND_IP3_SIGNALING		32	0.3808125	1.3141347	0.123239435	0.22826318	1.0	855	tags=44%, list=23%, signal=56%	
REACTOME_CELL_CELL_COMMUNICATION	REACTOME_CELL_CELL_COMMUNICATION		55	0.33624452	1.3042426	0.09965636	0.23780338	1.0	523	tags=25%, list=14%, signal=29%	
REACTOME_GLUCAGON_SIGNALING_IN_METABOLIC_REGULATION	REACTOME_GLUCAGON_SIGNALING_IN_METABOLIC_REGULATION		24	0.40967864	1.2887121	0.12739965	0.25558907	1.0	741	tags=38%, list=20%, signal=46%	
REACTOME_ADORA2B_MEDIATED_ANTI_INFLAMMATORY_CYTOKINES_PRODUCTION	REACTOME_ADORA2B_MEDIATED_ANTI_INFLAMMATORY_CYTOKINES_PRODUCTION		30	0.38077813	1.2835314	0.13414635	0.2592707	1.0	1183	tags=50%, list=31%, signal=72%	
REACTOME_CELL_JUNCTION_ORGANIZATION	REACTOME_CELL_JUNCTION_ORGANIZATION		33	0.37026525	1.2694494	0.14412811	0.27647322	1.0	753	tags=36%, list=20%, signal=45%	
REACTOME_G_ALPHA_I_SIGNALLING_EVENTS	REACTOME_G_ALPHA_I_SIGNALLING_EVENTS		110	0.2869838	1.26479	0.08305085	0.27906168	1.0	855	tags=34%, list=23%, signal=42%	
REACTOME_G_ALPHA_S_SIGNALLING_EVENTS	REACTOME_G_ALPHA_S_SIGNALLING_EVENTS		40	0.34394658	1.2531664	0.13242784	0.29293704	1.0	803	tags=40%, list=21%, signal=50%	
REACTOME_TRANSPORT_OF_BILE_SALTS_AND_ORGANIC_ACIDS_METAL_IONS_AND_AMINE_COMPOUNDS	REACTOME_TRANSPORT_OF_BILE_SALTS_AND_ORGANIC_ACIDS_METAL_IONS_AND_AMINE_COMPOUNDS		17	0.42181477	1.2427752	0.19039147	0.30483472	1.0	164	tags=18%, list=4%, signal=18%	
REACTOME_SIGNALING_BY_WNT_IN_CANCER	REACTOME_SIGNALING_BY_WNT_IN_CANCER		15	0.43577746	1.2280998	0.21201414	0.32431918	1.0	1269	tags=53%, list=34%, signal=80%	
REACTOME_ASSEMBLY_AND_CELL_SURFACE_PRESENTATION_OF_NMDA_RECEPTORS	REACTOME_ASSEMBLY_AND_CELL_SURFACE_PRESENTATION_OF_NMDA_RECEPTORS		31	0.36078104	1.2233337	0.19137931	0.32795632	1.0	1256	tags=42%, list=33%, signal=62%	
REACTOME_G_PROTEIN_MEDIATED_EVENTS	REACTOME_G_PROTEIN_MEDIATED_EVENTS		40	0.33429658	1.2057248	0.1952862	0.3535337	1.0	893	tags=40%, list=24%, signal=52%	
REACTOME_TRANSCRIPTIONAL_ACTIVATION_OF_MITOCHONDRIAL_BIOGENESIS	REACTOME_TRANSCRIPTIONAL_ACTIVATION_OF_MITOCHONDRIAL_BIOGENESIS		15	0.4265804	1.2052581	0.23728813	0.34959403	1.0	1177	tags=60%, list=31%, signal=87%	
REACTOME_VOLTAGE_GATED_POTASSIUM_CHANNELS	REACTOME_VOLTAGE_GATED_POTASSIUM_CHANNELS		16	0.41373658	1.1883532	0.24736843	0.3761318	1.0	1002	tags=38%, list=27%, signal=51%	
REACTOME_ION_TRANSPORT_BY_P_TYPE_ATPASES	REACTOME_ION_TRANSPORT_BY_P_TYPE_ATPASES		25	0.360369	1.1823974	0.22142857	0.38225228	1.0	1026	tags=44%, list=27%, signal=60%	
REACTOME_IRE1ALPHA_ACTIVATES_CHAPERONES	REACTOME_IRE1ALPHA_ACTIVATES_CHAPERONES		25	0.36447492	1.1567233	0.24909747	0.4276169	1.0	1246	tags=52%, list=33%, signal=77%	
REACTOME_ACTIVATION_OF_NMDA_RECEPTORS_AND_POSTSYNAPTIC_EVENTS	REACTOME_ACTIVATION_OF_NMDA_RECEPTORS_AND_POSTSYNAPTIC_EVENTS		69	0.28376225	1.1517678	0.20072332	0.43212473	1.0	739	tags=25%, list=20%, signal=30%	
REACTOME_SIGNALING_BY_ERBB4	REACTOME_SIGNALING_BY_ERBB4		25	0.36092344	1.1515048	0.26876092	0.42713726	1.0	768	tags=32%, list=20%, signal=40%	
REACTOME_GLYCOSAMINOGLYCAN_METABOLISM	REACTOME_GLYCOSAMINOGLYCAN_METABOLISM		19	0.37914854	1.1399872	0.28494623	0.44485083	1.0	638	tags=37%, list=17%, signal=44%	
REACTOME_CA_DEPENDENT_EVENTS	REACTOME_CA_DEPENDENT_EVENTS		29	0.335006	1.1222007	0.2741117	0.47682947	1.0	855	tags=38%, list=23%, signal=49%	
REACTOME_ANTI_INFLAMMATORY_RESPONSE_FAVOURING_LEISHMANIA_PARASITE_INFECTION	REACTOME_ANTI_INFLAMMATORY_RESPONSE_FAVOURING_LEISHMANIA_PARASITE_INFECTION		42	0.30356902	1.1155031	0.28780487	0.4853234	1.0	1011	tags=40%, list=27%, signal=55%	
REACTOME_DISASSEMBLY_OF_THE_DESTRUCTION_COMPLEX_AND_RECRUITMENT_OF_AXIN_TO_THE_MEMBRANE	REACTOME_DISASSEMBLY_OF_THE_DESTRUCTION_COMPLEX_AND_RECRUITMENT_OF_AXIN_TO_THE_MEMBRANE		15	0.3974275	1.1110717	0.32427537	0.48906118	1.0	1269	tags=47%, list=34%, signal=70%	
REACTOME_PHOSPHOLIPID_METABOLISM	REACTOME_PHOSPHOLIPID_METABOLISM		78	0.26459083	1.0967959	0.27540985	0.51517457	1.0	1056	tags=33%, list=28%, signal=45%	
REACTOME_INTEGRIN_CELL_SURFACE_INTERACTIONS	REACTOME_INTEGRIN_CELL_SURFACE_INTERACTIONS		22	0.3544853	1.0957748	0.31870228	0.51132137	1.0	600	tags=32%, list=16%, signal=38%	
REACTOME_PEPTIDE_HORMONE_METABOLISM	REACTOME_PEPTIDE_HORMONE_METABOLISM		24	0.33736375	1.0867187	0.34719712	0.52574956	1.0	973	tags=38%, list=26%, signal=50%	
REACTOME_PLATELET_HOMEOSTASIS	REACTOME_PLATELET_HOMEOSTASIS		45	0.29204604	1.0837632	0.32550335	0.52602655	1.0	798	tags=31%, list=21%, signal=39%	
REACTOME_SIGNALING_BY_GPCR	REACTOME_SIGNALING_BY_GPCR		196	0.2273019	1.0808321	0.2706767	0.5265739	1.0	855	tags=30%, list=23%, signal=36%	
REACTOME_BASIGIN_INTERACTIONS	REACTOME_BASIGIN_INTERACTIONS		15	0.38808852	1.0750419	0.35663083	0.5335996	1.0	263	tags=27%, list=7%, signal=29%	
REACTOME_NRAGE_SIGNALS_DEATH_THROUGH_JNK	REACTOME_NRAGE_SIGNALS_DEATH_THROUGH_JNK		29	0.31669298	1.0582454	0.36619717	0.5657881	1.0	876	tags=28%, list=23%, signal=36%	
REACTOME_CLASS_B_2_SECRETIN_FAMILY_RECEPTORS_	REACTOME_CLASS_B_2_SECRETIN_FAMILY_RECEPTORS_		15	0.36978763	1.051905	0.416819	0.57363904	1.0	1183	tags=47%, list=31%, signal=68%	
REACTOME_TRANSPORT_OF_SMALL_MOLECULES	REACTOME_TRANSPORT_OF_SMALL_MOLECULES		265	0.2105334	1.0343552	0.36336336	0.60818124	1.0	882	tags=26%, list=23%, signal=31%	
REACTOME_SIGNALING_BY_NUCLEAR_RECEPTORS	REACTOME_SIGNALING_BY_NUCLEAR_RECEPTORS		64	0.25809658	1.0329431	0.37716264	0.60494375	1.0	1011	tags=36%, list=27%, signal=48%	
REACTOME_REGULATION_OF_INSULIN_SECRETION	REACTOME_REGULATION_OF_INSULIN_SECRETION		56	0.2623444	1.022478	0.40655738	0.623439	1.0	1035	tags=39%, list=28%, signal=53%	
REACTOME_UNFOLDED_PROTEIN_RESPONSE_UPR_	REACTOME_UNFOLDED_PROTEIN_RESPONSE_UPR_		32	0.29723412	1.0188534	0.41269842	0.6253332	1.0	1246	tags=50%, list=33%, signal=74%	
REACTOME_FCGR3A_MEDIATED_IL10_SYNTHESIS	REACTOME_FCGR3A_MEDIATED_IL10_SYNTHESIS		24	0.30974102	1.0105405	0.41404805	0.6382123	1.0	830	tags=38%, list=22%, signal=48%	
REACTOME_EPHRIN_SIGNALING	REACTOME_EPHRIN_SIGNALING		17	0.34238687	0.9901761	0.46904317	0.6810702	1.0	809	tags=35%, list=22%, signal=45%	
REACTOME_CELL_SURFACE_INTERACTIONS_AT_THE_VASCULAR_WALL	REACTOME_CELL_SURFACE_INTERACTIONS_AT_THE_VASCULAR_WALL		48	0.2630735	0.9856549	0.4799331	0.6852803	1.0	551	tags=23%, list=15%, signal=27%	
REACTOME_SLC_TRANSPORTER_DISORDERS	REACTOME_SLC_TRANSPORTER_DISORDERS		24	0.31473243	0.98405	0.47795415	0.6823878	1.0	1100	tags=33%, list=29%, signal=47%	
REACTOME_TP53_REGULATES_METABOLIC_GENES	REACTOME_TP53_REGULATES_METABOLIC_GENES		50	0.25501698	0.97952664	0.49084857	0.6860624	1.0	814	tags=34%, list=22%, signal=43%	
REACTOME_G_BETA_GAMMA_SIGNALLING_THROUGH_PI3KGAMMA	REACTOME_G_BETA_GAMMA_SIGNALLING_THROUGH_PI3KGAMMA		16	0.33807507	0.96785694	0.50179213	0.70764565	1.0	1183	tags=44%, list=31%, signal=64%	
REACTOME_DARPP_32_EVENTS	REACTOME_DARPP_32_EVENTS		21	0.30973515	0.9619977	0.50549453	0.71432275	1.0	55	tags=10%, list=1%, signal=10%	
REACTOME_CONSTITUTIVE_SIGNALING_BY_ABERRANT_PI3K_IN_CANCER	REACTOME_CONSTITUTIVE_SIGNALING_BY_ABERRANT_PI3K_IN_CANCER		16	0.32511023	0.9477596	0.53571427	0.7419381	1.0	124	tags=13%, list=3%, signal=13%	
REACTOME_ORGANELLE_BIOGENESIS_AND_MAINTENANCE	REACTOME_ORGANELLE_BIOGENESIS_AND_MAINTENANCE		114	0.21353373	0.9349548	0.60790277	0.7657705	1.0	1250	tags=38%, list=33%, signal=55%	
REACTOME_INTERACTIONS_OF_VPR_WITH_HOST_CELLULAR_PROTEINS	REACTOME_INTERACTIONS_OF_VPR_WITH_HOST_CELLULAR_PROTEINS		15	0.32889718	0.93146855	0.5561139	0.7667055	1.0	249	tags=13%, list=7%, signal=14%	
REACTOME_PI3K_AKT_SIGNALING_IN_CANCER	REACTOME_PI3K_AKT_SIGNALING_IN_CANCER		29	0.2745581	0.9287347	0.5658363	0.76588243	1.0	717	tags=21%, list=19%, signal=25%	
REACTOME_INTEGRATION_OF_ENERGY_METABOLISM	REACTOME_INTEGRATION_OF_ENERGY_METABOLISM		73	0.22089513	0.91301024	0.62975204	0.7956534	1.0	1035	tags=37%, list=28%, signal=50%	
REACTOME_DEATH_RECEPTOR_SIGNALLING	REACTOME_DEATH_RECEPTOR_SIGNALLING		52	0.2371332	0.9082515	0.62413794	0.7995162	1.0	903	tags=25%, list=24%, signal=32%	
REACTOME_GLUCAGON_LIKE_PEPTIDE_1_GLP1_REGULATES_INSULIN_SECRETION	REACTOME_GLUCAGON_LIKE_PEPTIDE_1_GLP1_REGULATES_INSULIN_SECRETION		30	0.26339042	0.902292	0.6118881	0.8058493	1.0	1011	tags=40%, list=27%, signal=54%	
REACTOME_INSULIN_PROCESSING	REACTOME_INSULIN_PROCESSING		16	0.3164655	0.8975513	0.5782689	0.8095034	1.0	973	tags=31%, list=26%, signal=42%	
REACTOME_GPCR_LIGAND_BINDING	REACTOME_GPCR_LIGAND_BINDING		42	0.24500655	0.8969247	0.6365188	0.8036386	1.0	786	tags=33%, list=21%, signal=42%	
REACTOME_P75_NTR_RECEPTOR_MEDIATED_SIGNALLING	REACTOME_P75_NTR_RECEPTOR_MEDIATED_SIGNALLING		40	0.24669406	0.8915655	0.63506263	0.8082555	1.0	903	tags=28%, list=24%, signal=36%	
REACTOME_PEROXISOMAL_PROTEIN_IMPORT	REACTOME_PEROXISOMAL_PROTEIN_IMPORT		27	0.25761476	0.86373687	0.6514599	0.8624622	1.0	543	tags=22%, list=14%, signal=26%	
REACTOME_G_ALPHA_12_13_SIGNALLING_EVENTS	REACTOME_G_ALPHA_12_13_SIGNALLING_EVENTS		43	0.22868334	0.8538414	0.71274686	0.876277	1.0	876	tags=28%, list=23%, signal=36%	
REACTOME_VISUAL_PHOTOTRANSDUCTION	REACTOME_VISUAL_PHOTOTRANSDUCTION		19	0.28385437	0.8511545	0.6857671	0.87411284	1.0	786	tags=32%, list=21%, signal=40%	
REACTOME_G_PROTEIN_BETA_GAMMA_SIGNALLING	REACTOME_G_PROTEIN_BETA_GAMMA_SIGNALLING		19	0.285899	0.84994984	0.6746575	0.8690141	1.0	1598	tags=58%, list=42%, signal=100%	
REACTOME_METABOLISM_OF_VITAMINS_AND_COFACTORS	REACTOME_METABOLISM_OF_VITAMINS_AND_COFACTORS		56	0.21900742	0.84377116	0.75382006	0.87415755	1.0	862	tags=29%, list=23%, signal=37%	
REACTOME_SPHINGOLIPID_METABOLISM	REACTOME_SPHINGOLIPID_METABOLISM		17	0.28445435	0.8381235	0.6925926	0.8778985	1.0	106	tags=12%, list=3%, signal=12%	
REACTOME_NEGATIVE_REGULATION_OF_THE_PI3K_AKT_NETWORK	REACTOME_NEGATIVE_REGULATION_OF_THE_PI3K_AKT_NETWORK		38	0.23367572	0.83036023	0.7459165	0.88617855	1.0	178	tags=11%, list=5%, signal=11%	
REACTOME_SIGNALING_BY_NTRK2_TRKB_	REACTOME_SIGNALING_BY_NTRK2_TRKB_		19	0.27290872	0.8225663	0.7241379	0.8937386	1.0	374	tags=16%, list=10%, signal=17%	
REACTOME_ION_CHANNEL_TRANSPORT	REACTOME_ION_CHANNEL_TRANSPORT		64	0.20730093	0.82187694	0.7910959	0.88769245	1.0	1258	tags=41%, list=33%, signal=60%	
REACTOME_VEGFR2_MEDIATED_VASCULAR_PERMEABILITY	REACTOME_VEGFR2_MEDIATED_VASCULAR_PERMEABILITY		18	0.2773656	0.81826246	0.71086556	0.88699293	1.0	717	tags=28%, list=19%, signal=34%	
REACTOME_NCAM1_INTERACTIONS	REACTOME_NCAM1_INTERACTIONS		15	0.29114583	0.8165218	0.7118056	0.88303953	1.0	638	tags=27%, list=17%, signal=32%	
REACTOME_METABOLISM_OF_WATER_SOLUBLE_VITAMINS_AND_COFACTORS	REACTOME_METABOLISM_OF_WATER_SOLUBLE_VITAMINS_AND_COFACTORS		35	0.2328853	0.81066036	0.7640068	0.8861287	1.0	404	tags=17%, list=11%, signal=19%	
REACTOME_COPI_DEPENDENT_GOLGI_TO_ER_RETROGRADE_TRAFFIC	REACTOME_COPI_DEPENDENT_GOLGI_TO_ER_RETROGRADE_TRAFFIC		50	0.21051086	0.8048372	0.80517244	0.888664	1.0	1348	tags=38%, list=36%, signal=58%	
REACTOME_INTERACTION_BETWEEN_L1_AND_ANKYRINS	REACTOME_INTERACTION_BETWEEN_L1_AND_ANKYRINS		22	0.25167173	0.7967468	0.74909747	0.89503425	1.0	2819	tags=100%, list=75%, signal=397%	
REACTOME_SIGNALING_BY_KIT_IN_DISEASE	REACTOME_SIGNALING_BY_KIT_IN_DISEASE		15	0.28076822	0.79506594	0.7490637	0.8907614	1.0	1207	tags=33%, list=32%, signal=49%	
REACTOME_INTRA_GOLGI_TRAFFIC	REACTOME_INTRA_GOLGI_TRAFFIC		21	0.25782338	0.79306793	0.7607143	0.8869389	1.0	1379	tags=48%, list=37%, signal=75%	
REACTOME_SRP_DEPENDENT_COTRANSLATIONAL_PROTEIN_TARGETING_TO_MEMBRANE	REACTOME_SRP_DEPENDENT_COTRANSLATIONAL_PROTEIN_TARGETING_TO_MEMBRANE		86	0.18597032	0.78781694	0.86764705	0.88834095	1.0	1550	tags=43%, list=41%, signal=72%	
REACTOME_KINESINS	REACTOME_KINESINS		24	0.2441938	0.7846852	0.8024055	0.8862705	1.0	1225	tags=46%, list=33%, signal=68%	
REACTOME_COOPERATION_OF_PDCL_PHLP1_AND_TRIC_CCT_IN_G_PROTEIN_BETA_FOLDING	REACTOME_COOPERATION_OF_PDCL_PHLP1_AND_TRIC_CCT_IN_G_PROTEIN_BETA_FOLDING		29	0.2342645	0.7776331	0.7921847	0.8896401	1.0	1214	tags=38%, list=32%, signal=56%	
REACTOME_CELL_DEATH_SIGNALLING_VIA_NRAGE_NRIF_AND_NADE	REACTOME_CELL_DEATH_SIGNALLING_VIA_NRAGE_NRIF_AND_NADE		33	0.2162572	0.75331813	0.8619469	0.91636276	1.0	876	tags=24%, list=23%, signal=31%	
REACTOME_REGULATION_OF_INSULIN_LIKE_GROWTH_FACTOR_IGF_TRANSPORT_AND_UPTAKE_BY_INSULIN_LIKE_GROWTH_FACTOR_BINDING_PROTEINS_IGFBPS_	REACTOME_REGULATION_OF_INSULIN_LIKE_GROWTH_FACTOR_IGF_TRANSPORT_AND_UPTAKE_BY_INSULIN_LIKE_GROWTH_FACTOR_BINDING_PROTEINS_IGFBPS_		36	0.20998503	0.74561334	0.87079644	0.91922134	1.0	1191	tags=36%, list=32%, signal=52%	
REACTOME_FATTY_ACYL_COA_BIOSYNTHESIS	REACTOME_FATTY_ACYL_COA_BIOSYNTHESIS		18	0.24384627	0.70860225	0.84981686	0.9518581	1.0	1169	tags=44%, list=31%, signal=64%	
REACTOME_INTRAFLAGELLAR_TRANSPORT	REACTOME_INTRAFLAGELLAR_TRANSPORT		21	0.19689812	0.62204236	0.9499106	1.0	1.0	1250	tags=33%, list=33%, signal=50%	
REACTOME_SIGNALING_BY_SCF_KIT	REACTOME_SIGNALING_BY_SCF_KIT		19	0.19894893	0.6045515	0.9546314	1.0	1.0	1207	tags=32%, list=32%, signal=46%	
REACTOME_SARS_COV_1_INFECTION	REACTOME_SARS_COV_1_INFECTION		19	0.20072347	0.5987842	0.95035464	0.998717	1.0	988	tags=32%, list=26%, signal=43%	
REACTOME_HCMV_LATE_EVENTS	REACTOME_HCMV_LATE_EVENTS		23	0.19154626	0.5973357	0.9684015	0.9920728	1.0	1233	tags=35%, list=33%, signal=51%	
REACTOME_RAF_ACTIVATION	REACTOME_RAF_ACTIVATION		29	0.1697264	0.5723231	0.969697	0.9918584	1.0	1338	tags=41%, list=36%, signal=64%	
REACTOME_CTLA4_INHIBITORY_SIGNALING	REACTOME_CTLA4_INHIBITORY_SIGNALING		17	0.19177347	0.56886655	0.9717314	0.98550254	1.0	3042	tags=100%, list=81%, signal=521%	
