ProteinID,UniprotAccession,UniprotProteinName,GeneName,ProteinDescription
sp|Q9Y4F5|C170B_HUMAN,Q9Y4F5,C170B_HUMAN,CEP170B,Centrosomal protein of 170 kDa protein B
tr|F8VVT9|F8VVT9_HUMAN,F8VVT9,F8VVT9_HUMAN,AGAP2,"Arf-GAP with GTPase, ANK repeat and PH domain-containing protein 2"
sp|Q8WXD9|CSKI1_HUMAN,Q8WXD9,CSKI1_HUMAN,CASKIN1,Caskin-1
sp|O15240|VGF_HUMAN,O15240,VGF_HUMAN,VGF,Neurosecretory protein VGF
sp|Q99784|NOE1_HUMAN,Q99784,NOE1_HUMAN,OLFM1,Noelin
sp|P32189|GLPK_HUMAN,P32189,GLPK_HUMAN,GK,Glycerol kinase
sp|O60241-2|BAI2_HUMAN,O60241.2,BAI2_HUMAN,BAI2,Isoform 2 of Brain-specific angiogenesis inhibitor 2
sp|Q96JC1|VPS39_HUMAN,Q96JC1,VPS39_HUMAN,VPS39,Vam6/Vps39-like protein
sp|Q5T848|GP158_HUMAN,Q5T848,GP158_HUMAN,GPR158,Probable G-protein coupled receptor 158
sp|O00468-3|AGRIN_HUMAN,O00468.3,AGRIN_HUMAN,AGRN,Isoform 3 of Agrin
sp|O95897|NOE2_HUMAN,O95897,NOE2_HUMAN,OLFM2,Noelin-2
sp|Q86UX6|ST32C_HUMAN,Q86UX6,ST32C_HUMAN,STK32C,Serine/threonine-protein kinase 32C
sp|Q9HCM3|K1549_HUMAN,Q9HCM3,K1549_HUMAN,KIAA1549,UPF0606 protein KIAA1549
sp|Q16630|CPSF6_HUMAN,Q16630,CPSF6_HUMAN,CPSF6,Cleavage and polyadenylation specificity factor subunit 6
sp|Q92743|HTRA1_HUMAN,Q92743,HTRA1_HUMAN,HTRA1,Serine protease HTRA1
sp|Q14722-2|KCAB1_HUMAN,Q14722.2,KCAB1_HUMAN,KCNAB1,Isoform KvB1.1 of Voltage-gated potassium channel subunit beta-1
sp|A2RRP1|NBAS_HUMAN,A2RRP1,NBAS_HUMAN,NBAS,Neuroblastoma-amplified sequence
sp|P49619|DGKG_HUMAN,P49619,DGKG_HUMAN,DGKG,Diacylglycerol kinase gamma
sp|P05026|AT1B1_HUMAN,P05026,AT1B1_HUMAN,ATP1B1,Sodium/potassium-transporting ATPase subunit beta-1
sp|Q9NR22|ANM8_HUMAN,Q9NR22,ANM8_HUMAN,PRMT8,Protein arginine N-methyltransferase 8
sp|P51858|HDGF_HUMAN,P51858,HDGF_HUMAN,HDGF,Hepatoma-derived growth factor
sp|O75431|MTX2_HUMAN,O75431,MTX2_HUMAN,MTX2,Metaxin-2
sp|Q9UPQ7|PZRN3_HUMAN,Q9UPQ7,PZRN3_HUMAN,PDZRN3,E3 ubiquitin-protein ligase PDZRN3
sp|Q12888|TP53B_HUMAN,Q12888,TP53B_HUMAN,TP53BP1,Tumor suppressor p53-binding protein 1
sp|P06307|CCKN_HUMAN,P06307,CCKN_HUMAN,CCK,Cholecystokinin
sp|Q15155|NOMO1_HUMAN,Q15155,NOMO1_HUMAN,NOMO1,Nodal modulator 1
sp|O75326|SEM7A_HUMAN,O75326,SEM7A_HUMAN,SEMA7A,Semaphorin-7A
sp|P28838|AMPL_HUMAN,P28838,AMPL_HUMAN,LAP3,Cytosol aminopeptidase
sp|Q9BQ69|MACD1_HUMAN,Q9BQ69,MACD1_HUMAN,MACROD1,O-acetyl-ADP-ribose deacetylase MACROD1
