NAME,SIZE,ES,NES,NOM p-val,FDR q-val,FWER p-val,RANK AT MAX,LEADING EDGE,comparison
REACTOME_EUKARYOTIC_TRANSLATION_ELONGATION,77,-0.44691318,-1.9358907,0,0.0970751,0.144,1125,"tags=53%, list=30%, signal=74%",FRLoverN
REACTOME_AUF1_HNRNP_D0_BINDS_AND_DESTABILIZES_MRNA,42,-0.48798415,-1.8619671,0,0.094379485,0.254,339,"tags=31%, list=9%, signal=34%",FRLoverN
REACTOME_RRNA_PROCESSING,76,-0.42671886,-1.8600055,0,0.07727515,0.261,1125,"tags=53%, list=30%, signal=74%",FRLoverN
REACTOME_INTERLEUKIN_1_SIGNALING,50,-0.45845208,-1.8475715,0,0.07311734,0.291,807,"tags=40%, list=21%, signal=50%",FRLoverN
REACTOME_METABOLISM_OF_NUCLEOTIDES,39,-0.49678388,-1.8470359,0.004830918,0.06320344,0.293,616,"tags=41%, list=16%, signal=49%",FRLoverN
REACTOME_DEFECTIVE_CFTR_CAUSES_CYSTIC_FIBROSIS,41,-0.47337043,-1.8209219,0,0.07489785,0.38,339,"tags=29%, list=9%, signal=32%",FRLoverN
REACTOME_G2_M_CHECKPOINTS,48,-0.4578344,-1.8178974,0,0.06780911,0.384,339,"tags=25%, list=9%, signal=27%",FRLoverN
REACTOME_ANTIGEN_PROCESSING_CROSS_PRESENTATION,47,-0.46557817,-1.8159907,0,0.0626358,0.39,807,"tags=38%, list=21%, signal=48%",FRLoverN
REACTOME_REGULATION_OF_MRNA_STABILITY_BY_PROTEINS_THAT_BIND_AU_RICH_ELEMENTS,53,-0.44638187,-1.8006386,0.0022779044,0.06614362,0.436,342,"tags=30%, list=9%, signal=33%",FRLoverN
REACTOME_PROTEIN_UBIQUITINATION,17,-0.57742023,-1.7719427,0.00856531,0.08069158,0.529,768,"tags=47%, list=20%, signal=59%",FRLoverN
REACTOME_SRP_DEPENDENT_COTRANSLATIONAL_PROTEIN_TARGETING_TO_MEMBRANE,86,-0.3996666,-1.7644906,0,0.07997666,0.552,1125,"tags=50%, list=30%, signal=70%",FRLoverN
REACTOME_REGULATION_OF_EXPRESSION_OF_SLITS_AND_ROBOS,120,-0.37117302,-1.7581381,0,0.07812911,0.567,1130,"tags=48%, list=30%, signal=66%",FRLoverN
REACTOME_PROGRAMMED_CELL_DEATH,96,-0.38079584,-1.7493455,0,0.079763666,0.602,374,"tags=23%, list=10%, signal=25%",FRLoverN
REACTOME_ORC1_REMOVAL_FROM_CHROMATIN,39,-0.45935577,-1.7473425,0.006880734,0.07660024,0.609,807,"tags=44%, list=21%, signal=55%",FRLoverN
REACTOME_METABOLISM_OF_RNA,216,-0.34137958,-1.7463278,0,0.07282694,0.614,959,"tags=40%, list=25%, signal=51%",FRLoverN
REACTOME_RESPONSE_OF_EIF2AK4_GCN2_TO_AMINO_ACID_DEFICIENCY,77,-0.39979467,-1.744833,0,0.07012813,0.625,1125,"tags=53%, list=30%, signal=74%",FRLoverN
REACTOME_MAPK6_MAPK4_SIGNALING,47,-0.43319562,-1.739821,0,0.069400534,0.639,339,"tags=28%, list=9%, signal=30%",FRLoverN
REACTOME_NEUTROPHIL_DEGRANULATION,200,-0.3378163,-1.7125714,0,0.0833147,0.725,830,"tags=31%, list=22%, signal=38%",FRLoverN
REACTOME_SCF_SKP2_MEDIATED_DEGRADATION_OF_P27_P21,38,-0.45210534,-1.698971,0.0044444446,0.08880924,0.77,807,"tags=42%, list=21%, signal=53%",FRLoverN
REACTOME_NONSENSE_MEDIATED_DECAY_NMD_,84,-0.381988,-1.6982448,0,0.0851174,0.771,1125,"tags=49%, list=30%, signal=68%",FRLoverN
REACTOME_DNA_REPLICATION_PRE_INITIATION,36,-0.45011988000000003,-1.6847646,0.010660981,0.08956684,0.802,339,"tags=28%, list=9%, signal=30%",FRLoverN
REACTOME_ASSEMBLY_OF_THE_PRE_REPLICATIVE_COMPLEX,36,-0.45011988000000003,-1.6752679,0.015350877,0.09215379,0.823,339,"tags=28%, list=9%, signal=30%",FRLoverN
REACTOME_INFLUENZA_INFECTION,99,-0.37106627,-1.6720108,0.0023201855,0.09068297,0.828,1125,"tags=46%, list=30%, signal=65%",FRLoverN
REACTOME_G1_S_DNA_DAMAGE_CHECKPOINTS,36,-0.45011988000000003,-1.6713054,0.0022522523,0.08767273,0.829,339,"tags=28%, list=9%, signal=30%",FRLoverN
REACTOME_TNFR2_NON_CANONICAL_NF_KB_PATHWAY,42,-0.42939958,-1.6668869,0.0023923444,0.088082574,0.834,807,"tags=38%, list=21%, signal=48%",FRLoverN
REACTOME_ABC_TRANSPORTER_DISORDERS,45,-0.42158255,-1.6629381,0.013333334,0.08772213,0.844,339,"tags=27%, list=9%, signal=29%",FRLoverN
REACTOME_REGULATION_OF_RUNX3_EXPRESSION_AND_ACTIVITY,37,-0.44242862,-1.6580306,0.006756757,0.08865528,0.854,339,"tags=27%, list=9%, signal=29%",FRLoverN
REACTOME_PHASE_I_FUNCTIONALIZATION_OF_COMPOUNDS,17,-0.53859943,-1.657672,0.010351967,0.086135104,0.856,381,"tags=35%, list=10%, signal=39%",FRLoverN
REACTOME_UCH_PROTEINASES,45,-0.42923695,-1.649731,0.009925558,0.08821508,0.872,807,"tags=42%, list=21%, signal=53%",FRLoverN
REACTOME_DDX58_IFIH1_MEDIATED_INDUCTION_OF_INTERFERON_ALPHA_BETA,17,-0.54028535,-1.6475224,0.027659575,0.08707602,0.876,61,"tags=18%, list=2%, signal=18%",FRLoverN
REACTOME_STABILIZATION_OF_P53,36,-0.45011988000000003,-1.6419876,0.0067114094,0.08816876,0.889,339,"tags=28%, list=9%, signal=30%",FRLoverN
REACTOME_DECTIN_1_MEDIATED_NONCANONICAL_NF_KB_SIGNALING,41,-0.42972907,-1.6408408,0.0065075923,0.08634295,0.893,807,"tags=39%, list=21%, signal=49%",FRLoverN
REACTOME_TCR_SIGNALING,59,-0.38631725,-1.6394851,0.0073891627,0.084916025,0.896,807,"tags=36%, list=21%, signal=45%",FRLoverN
REACTOME_NEGATIVE_REGULATION_OF_NOTCH4_SIGNALING,41,-0.4235271,-1.6357788,0.009345794,0.085018635,0.903,807,"tags=41%, list=21%, signal=52%",FRLoverN
REACTOME_DEGRADATION_OF_AXIN,36,-0.45011988000000003,-1.6316487,0.01826484,0.0852221,0.91,339,"tags=28%, list=9%, signal=30%",FRLoverN
REACTOME_SIGNALING_BY_NOTCH,67,-0.38376102,-1.6305643,0.0046948357,0.083918616,0.915,807,"tags=37%, list=21%, signal=47%",FRLoverN
REACTOME_MRNA_SPLICING,50,-0.4042875,-1.630531,0.009237875,0.08176685,0.915,730,"tags=40%, list=19%, signal=49%",FRLoverN
REACTOME_HEDGEHOG_LIGAND_BIOGENESIS,42,-0.4282184,-1.6250584,0.009302326,0.08343005,0.921,807,"tags=38%, list=21%, signal=48%",FRLoverN
REACTOME_DNA_DOUBLE_STRAND_BREAK_REPAIR,16,-0.5525644,-1.6229967,0.022821577,0.0828074,0.923,623,"tags=44%, list=17%, signal=52%",FRLoverN
REACTOME_SIGNALING_BY_NOTCH4,45,-0.41407746,-1.6216865,0.009029346,0.08147523,0.924,807,"tags=40%, list=21%, signal=50%",FRLoverN
REACTOME_DEGRADATION_OF_DVL,40,-0.42956352,-1.6159424,0.014184397,0.08299005,0.93,807,"tags=40%, list=21%, signal=50%",FRLoverN
REACTOME_BIOLOGICAL_OXIDATIONS,44,-0.41346085,-1.6145496,0.015350877,0.081937596,0.935,745,"tags=36%, list=20%, signal=45%",FRLoverN
REACTOME_INTERLEUKIN_12_SIGNALING,28,-0.4658123,-1.6107608,0.015151516,0.082948446,0.938,716,"tags=36%, list=19%, signal=44%",FRLoverN
REACTOME_CYCLIN_A_CDK2_ASSOCIATED_EVENTS_AT_S_PHASE_ENTRY,42,-0.42260328,-1.6085411,0.007142857,0.08226265,0.941,807,"tags=40%, list=21%, signal=51%",FRLoverN
REACTOME_DOWNSTREAM_SIGNALING_EVENTS_OF_B_CELL_RECEPTOR_BCR_,50,-0.40238863,-1.6077248,0.011709602,0.08092155,0.941,1037,"tags=48%, list=28%, signal=65%",FRLoverN
REACTOME_GLOBAL_GENOME_NUCLEOTIDE_EXCISION_REPAIR_GG_NER_,22,-0.4912056,-1.5980077,0.022421524,0.085424475,0.957,905,"tags=50%, list=24%, signal=65%",FRLoverN
REACTOME_SIGNALING_BY_THE_B_CELL_RECEPTOR_BCR_,62,-0.38036674,-1.5880847,0.0022123894,0.089976825,0.969,1037,"tags=47%, list=28%, signal=64%",FRLoverN
REACTOME_GENE_AND_PROTEIN_EXPRESSION_BY_JAK_STAT_SIGNALING_AFTER_INTERLEUKIN_12_STIMULATION,26,-0.4686746,-1.5865293,0.017167382,0.089254834,0.969,716,"tags=38%, list=19%, signal=47%",FRLoverN
REACTOME_FCERI_MEDIATED_NF_KB_ACTIVATION,48,-0.4030058,-1.5838791,0.016166281,0.08913436,0.971,807,"tags=38%, list=21%, signal=47%",FRLoverN
REACTOME_DEGRADATION_OF_GLI1_BY_THE_PROTEASOME,43,-0.4043457,-1.5798913,0.020224718,0.089787945,0.976,807,"tags=40%, list=21%, signal=50%",FRLoverN
REACTOME_SWITCHING_OF_ORIGINS_TO_A_POST_REPLICATIVE_STATE,41,-0.4135118,-1.5780747,0.0072639226,0.08940069,0.976,807,"tags=41%, list=21%, signal=52%",FRLoverN
REACTOME_CROSS_PRESENTATION_OF_SOLUBLE_EXOGENOUS_ANTIGENS_ENDOSOMES_,35,-0.42069766,-1.5750369,0.011185682,0.08988369,0.977,807,"tags=40%, list=21%, signal=50%",FRLoverN
REACTOME_PTEN_REGULATION,59,-0.3863567,-1.5732367,0.01369863,0.08955537,0.979,370,"tags=25%, list=10%, signal=28%",FRLoverN
REACTOME_REGULATION_OF_RUNX2_EXPRESSION_AND_ACTIVITY,42,-0.40859652,-1.5680304,0.013157895,0.09176301,0.983,807,"tags=40%, list=21%, signal=51%",FRLoverN
REACTOME_RUNX1_REGULATES_TRANSCRIPTION_OF_GENES_INVOLVED_IN_DIFFERENTIATION_OF_HSCS,38,-0.4173252,-1.5639722,0.018348623,0.092600465,0.985,339,"tags=26%, list=9%, signal=29%",FRLoverN
REACTOME_SUMOYLATION,27,-0.45990583,-1.5605341,0.023206752,0.09332986,0.986,871,"tags=59%, list=23%, signal=77%",FRLoverN
REACTOME_DNA_REPAIR,47,-0.40074143,-1.5555007,0.020501139,0.09483606,0.988,905,"tags=40%, list=24%, signal=53%",FRLoverN
REACTOME_UB_SPECIFIC_PROCESSING_PROTEASES,71,-0.35876748,-1.5533367,0.004962779,0.09470863,0.99,807,"tags=34%, list=21%, signal=42%",FRLoverN
REACTOME_HEDGEHOG_ON_STATE,46,-0.3866429,-1.551568,0.011627907,0.09438376,0.992,339,"tags=24%, list=9%, signal=26%",FRLoverN
REACTOME_DNA_REPLICATION,41,-0.4135118,-1.548378,0.02027027,0.09521545,0.992,807,"tags=41%, list=21%, signal=52%",FRLoverN
REACTOME_CELLULAR_RESPONSE_TO_HYPOXIA,43,-0.39747024,-1.5480858,0.030162413,0.09382674,0.992,807,"tags=37%, list=21%, signal=47%",FRLoverN
REACTOME_ABC_FAMILY_PROTEINS_MEDIATED_TRANSPORT,56,-0.38296115,-1.5452725,0.018306635,0.09408537,0.992,823,"tags=39%, list=22%, signal=50%",FRLoverN
REACTOME_INTERLEUKIN_1_FAMILY_SIGNALING,58,-0.3710341,-1.5450157,0.016786572,0.092809945,0.992,807,"tags=34%, list=21%, signal=43%",FRLoverN
REACTOME_REGULATION_OF_TP53_ACTIVITY,32,-0.42639127,-1.5438724,0.020881671,0.09234598,0.993,186,"tags=22%, list=5%, signal=23%",FRLoverN
REACTOME_REGULATION_OF_RAS_BY_GAPS,49,-0.3846357,-1.5358579,0.017412934,0.096593745,0.993,339,"tags=22%, list=9%, signal=24%",FRLoverN
REACTOME_THROMBIN_SIGNALLING_THROUGH_PROTEINASE_ACTIVATED_RECEPTORS_PARS_,21,-0.47863352,-1.531945,0.032822758,0.0978262,0.994,635,"tags=43%, list=17%, signal=51%",FRLoverN
REACTOME_APC_C_MEDIATED_DEGRADATION_OF_CELL_CYCLE_PROTEINS,40,-0.40583906,-1.5318327,0.022988506,0.09647677,0.994,807,"tags=40%, list=21%, signal=50%",FRLoverN
REACTOME_SIGNALING_BY_ROBO_RECEPTORS,154,-0.3114449,-1.5305109,0,0.09588375,0.995,1132,"tags=42%, list=30%, signal=58%",FRLoverN
REACTOME_CLEC7A_DECTIN_1_SIGNALING,55,-0.37159,-1.5280375,0.024070023,0.09628505,0.995,339,"tags=24%, list=9%, signal=26%",FRLoverN
REACTOME_APC_C_CDH1_MEDIATED_DEGRADATION_OF_CDC20_AND_OTHER_APC_C_CDH1_TARGETED_PROTEINS_IN_LATE_MITOSIS_EARLY_G1,38,-0.4110195,-1.5278933,0.028103044,0.095017545,0.995,339,"tags=26%, list=9%, signal=29%",FRLoverN
REACTOME_METABOLISM_OF_CARBOHYDRATES,91,-0.33640417,-1.5237284,0.00990099,0.096739255,0.996,884,"tags=37%, list=24%, signal=48%",FRLoverN
REACTOME_NUCLEOTIDE_EXCISION_REPAIR,27,-0.44060352,-1.5224878,0.031982943,0.09613179,0.996,905,"tags=44%, list=24%, signal=58%",FRLoverN
REACTOME_METABOLISM_OF_POLYAMINES,38,-0.40681022,-1.5218647,0.02603037,0.095313855,0.997,895,"tags=42%, list=24%, signal=55%",FRLoverN
REACTOME_C_TYPE_LECTIN_RECEPTORS_CLRS_,66,-0.35837322,-1.5173623999999999,0.009756098,0.096982576,0.997,339,"tags=23%, list=9%, signal=25%",FRLoverN
REACTOME_METABOLISM_OF_AMINO_ACIDS_AND_DERIVATIVES,201,-0.2945687,-1.5136245,0,0.09841905,0.997,1125,"tags=43%, list=30%, signal=58%",FRLoverN
REACTOME_ADHERENS_JUNCTIONS_INTERACTIONS,18,0.6673707,1.9819227,0,0.043208815,0.05,881,"tags=61%, list=23%, signal=79%",NoverFRL
REACTOME_SIGNALING_BY_WNT_IN_CANCER,15,0.68603706,1.972958,0.0035778175,0.027191946,0.063,739,"tags=60%, list=20%, signal=74%",NoverFRL
REACTOME_DISASSEMBLY_OF_THE_DESTRUCTION_COMPLEX_AND_RECRUITMENT_OF_AXIN_TO_THE_MEMBRANE,15,0.67616254,1.9541229,0.0018975332,0.024040826,0.084,1007,"tags=67%, list=27%, signal=91%",NoverFRL
REACTOME_CELL_CELL_JUNCTION_ORGANIZATION,21,0.6310168,1.9531842,0,0.018844564,0.088,881,"tags=57%, list=23%, signal=74%",NoverFRL
REACTOME_RESPIRATORY_ELECTRON_TRANSPORT,70,0.4416794,1.7952236,0,0.0872518,0.479,1182,"tags=56%, list=31%, signal=80%",NoverFRL
